# Max2Mtl Version 4.0 Mar 10th, 2001
#
# Multi/Sub 01_-_Default (3) to come 
#
newmtl Material__2
Ka  0.9 0.9 0.9
Kd  0.9 0.9 0.9
Ks  0.9 0.9 0.9
d  1.0
Ns  0.0
illum 2
#
newmtl Material__3
Ka  0.9 0.0 0.0
Kd  0.9 0.0 0.0
Ks  0.9 0.9 0.9
d  1.0
Ns  0.0
illum 2
#
newmtl Material__13
Ka  0.3 0.3 0.3
Kd  0.3 0.3 0.3
Ks  0.9 0.9 0.9
d  1.0
Ns  0.0
illum 2
#
# Multi/Sub 01_-_Default done 
#
# EOF
