^E:\Projects\Dice\Dice\Dice.vcxproj
E:\Projects\Dice\Debug\Dice.lib
E:\Projects\Dice\Debug\Dice.exp
^E:\Projects\Dice\Dice\Dice.vcxproj
E:\Projects\Dice\Debug\Dice.lib
E:\Projects\Dice\Debug\Dice.exp
^E:\Projects\Dice\Dice\Dice.vcxproj
E:\Projects\Dice\Debug\Dice.lib
E:\Projects\Dice\Debug\Dice.exp
^E:\Projects\Dice\Dice\Dice.vcxproj
E:\Projects\Dice\Debug\Dice.lib
E:\Projects\Dice\Debug\Dice.exp
^E:\Projects\Dice\Dice\Dice.vcxproj
E:\Projects\Dice\Debug\Dice.lib
E:\Projects\Dice\Debug\Dice.exp
^E:\Projects\Dice\Dice\Dice.vcxproj
E:\Projects\Dice\Debug\Dice.lib
E:\Projects\Dice\Debug\Dice.exp
^E:\Projects\Dice\Dice\Dice.vcxproj
E:\Projects\Dice\Debug\Dice.lib
E:\Projects\Dice\Debug\Dice.exp
^E:\Projects\Dice\Dice\Dice.vcxproj
E:\Projects\Dice\Debug\Dice.lib
E:\Projects\Dice\Debug\Dice.exp
^E:\Projects\Dice\Dice\Dice.vcxproj
E:\Projects\Dice\Debug\Dice.lib
E:\Projects\Dice\Debug\Dice.exp
^E:\Projects\Dice\Dice\Dice.vcxproj
E:\Projects\Dice\Debug\Dice.lib
E:\Projects\Dice\Debug\Dice.exp
^E:\Projects\Dice\Dice\Dice.vcxproj
E:\Projects\Dice\Debug\Dice.lib
E:\Projects\Dice\Debug\Dice.exp
^E:\Projects\Dice\Dice\Dice.vcxproj
E:\Projects\Dice\Debug\Dice.lib
E:\Projects\Dice\Debug\Dice.exp
^E:\Projects\Dice\Dice\Dice.vcxproj
E:\Projects\Dice\Debug\Dice.lib
E:\Projects\Dice\Debug\Dice.exp
^E:\Projects\Dice\Dice\Dice.vcxproj
E:\Projects\Dice\Debug\Dice.lib
E:\Projects\Dice\Debug\Dice.exp
^E:\Projects\Dice\Dice\Dice.vcxproj
E:\Projects\Dice\Debug\Dice.lib
E:\Projects\Dice\Debug\Dice.exp
^E:\Projects\Dice\Dice\Dice.vcxproj
E:\Projects\Dice\Debug\Dice.lib
E:\Projects\Dice\Debug\Dice.exp
^E:\Projects\Dice\Dice\Dice.vcxproj
E:\Projects\Dice\Debug\Dice.lib
E:\Projects\Dice\Debug\Dice.exp
^E:\Projects\Dice\Dice\Dice.vcxproj
E:\Projects\Dice\Debug\Dice.lib
E:\Projects\Dice\Debug\Dice.exp
^E:\Projects\Dice\Dice\Dice.vcxproj
E:\Projects\Dice\Debug\Dice.lib
E:\Projects\Dice\Debug\Dice.exp
^E:\Projects\Dice\Dice\Dice.vcxproj
E:\Projects\Dice\Debug\Dice.lib
E:\Projects\Dice\Debug\Dice.exp
^E:\Projects\Dice\Dice\Dice.vcxproj
E:\Projects\Dice\Debug\Dice.lib
E:\Projects\Dice\Debug\Dice.exp
^E:\Projects\Dice\Dice\Dice.vcxproj
E:\Projects\Dice\Debug\Dice.lib
E:\Projects\Dice\Debug\Dice.exp
^E:\Projects\Dice\Dice\Dice.vcxproj
E:\Projects\Dice\Debug\Dice.lib
E:\Projects\Dice\Debug\Dice.exp
^E:\Projects\Dice\Dice\Dice.vcxproj
E:\Projects\Dice\Debug\Dice.lib
E:\Projects\Dice\Debug\Dice.exp
^E:\Projects\Dice\Dice\Dice.vcxproj
E:\Projects\Dice\Debug\Dice.lib
E:\Projects\Dice\Debug\Dice.exp
^E:\Projects\Dice\Dice\Dice.vcxproj
E:\Projects\Dice\Debug\Dice.lib
E:\Projects\Dice\Debug\Dice.exp
^E:\Projects\Dice\Dice\Dice.vcxproj
E:\Projects\Dice\Debug\Dice.lib
E:\Projects\Dice\Debug\Dice.exp
^E:\Projects\Dice\Dice\Dice.vcxproj
E:\Projects\Dice\Debug\Dice.lib
E:\Projects\Dice\Debug\Dice.exp
^E:\Projects\Dice\Dice\Dice.vcxproj
E:\Projects\Dice\Debug\Dice.lib
E:\Projects\Dice\Debug\Dice.exp
^E:\Projects\Dice\Dice\Dice.vcxproj
E:\Projects\Dice\Debug\Dice.lib
E:\Projects\Dice\Debug\Dice.exp
^E:\Projects\Dice\Dice\Dice.vcxproj
E:\Projects\Dice\Debug\Dice.lib
E:\Projects\Dice\Debug\Dice.exp
^E:\Projects\Dice\Dice\Dice.vcxproj
E:\Projects\Dice\Debug\Dice.lib
E:\Projects\Dice\Debug\Dice.exp
^E:\Projects\Dice\Dice\Dice.vcxproj
E:\Projects\Dice\Debug\Dice.lib
E:\Projects\Dice\Debug\Dice.exp
^E:\Projects\Dice\Dice\Dice.vcxproj
E:\Projects\Dice\Debug\Dice.lib
E:\Projects\Dice\Debug\Dice.exp
^E:\Projects\Dice\Dice\Dice.vcxproj
E:\Projects\Dice\Debug\Dice.lib
E:\Projects\Dice\Debug\Dice.exp
^E:\Projects\Dice\Dice\Dice.vcxproj
E:\Projects\Dice\Debug\Dice.lib
E:\Projects\Dice\Debug\Dice.exp
^E:\Projects\Dice\Dice\Dice.vcxproj
E:\Projects\Dice\Debug\Dice.lib
E:\Projects\Dice\Debug\Dice.exp
^E:\Projects\Dice\Dice\Dice.vcxproj
E:\Projects\Dice\Debug\Dice.lib
E:\Projects\Dice\Debug\Dice.exp
^E:\Projects\Dice\Dice\Dice.vcxproj
E:\Projects\Dice\Debug\Dice.lib
E:\Projects\Dice\Debug\Dice.exp
^E:\Projects\Dice\Dice\Dice.vcxproj
E:\Projects\Dice\Debug\Dice.lib
E:\Projects\Dice\Debug\Dice.exp
^E:\Projects\Dice\Dice\Dice.vcxproj
E:\Projects\Dice\Debug\Dice.lib
E:\Projects\Dice\Debug\Dice.exp
^E:\Projects\Dice\Dice\Dice.vcxproj
E:\Projects\Dice\Debug\Dice.lib
E:\Projects\Dice\Debug\Dice.exp
^E:\Projects\Dice\Dice\Dice.vcxproj
E:\Projects\Dice\Debug\Dice.lib
E:\Projects\Dice\Debug\Dice.exp
^E:\Projects\Dice\Dice\Dice.vcxproj
E:\Projects\Dice\Debug\Dice.lib
E:\Projects\Dice\Debug\Dice.exp
^E:\Projects\Dice\Dice\Dice.vcxproj
E:\Projects\Dice\Debug\Dice.lib
E:\Projects\Dice\Debug\Dice.exp
^E:\Projects\Dice\Dice\Dice.vcxproj
E:\Projects\Dice\Debug\Dice.lib
E:\Projects\Dice\Debug\Dice.exp
^E:\Projects\Dice\Dice\Dice.vcxproj
E:\Projects\Dice\Debug\Dice.lib
E:\Projects\Dice\Debug\Dice.exp
^E:\Projects\Dice\Dice\Dice.vcxproj
E:\Projects\Dice\Debug\Dice.lib
E:\Projects\Dice\Debug\Dice.exp
^E:\Projects\Dice\Dice\Dice.vcxproj
E:\Projects\Dice\Debug\Dice.lib
E:\Projects\Dice\Debug\Dice.exp
^E:\Projects\Dice\Dice\Dice.vcxproj
E:\Projects\Dice\Debug\Dice.lib
E:\Projects\Dice\Debug\Dice.exp
^E:\Projects\Dice\Dice\Dice.vcxproj
E:\Projects\Dice\Debug\Dice.lib
E:\Projects\Dice\Debug\Dice.exp
^E:\Projects\Dice\Dice\Dice.vcxproj
E:\Projects\Dice\Debug\Dice.lib
E:\Projects\Dice\Debug\Dice.exp
^E:\Projects\Dice\Dice\Dice.vcxproj
E:\Projects\Dice\Debug\Dice.lib
E:\Projects\Dice\Debug\Dice.exp
^E:\Projects\Dice\Dice\Dice.vcxproj
E:\Projects\Dice\Debug\Dice.lib
E:\Projects\Dice\Debug\Dice.exp
^E:\Projects\Dice\Dice\Dice.vcxproj
E:\Projects\Dice\Debug\Dice.lib
E:\Projects\Dice\Debug\Dice.exp
^E:\Projects\Dice\Dice\Dice.vcxproj
E:\Projects\Dice\Debug\Dice.lib
E:\Projects\Dice\Debug\Dice.exp
^E:\Projects\Dice\Dice\Dice.vcxproj
E:\Projects\Dice\Debug\Dice.lib
E:\Projects\Dice\Debug\Dice.exp
^E:\Projects\Dice\Dice\Dice.vcxproj
E:\Projects\Dice\Debug\Dice.lib
E:\Projects\Dice\Debug\Dice.exp
^E:\Projects\Dice\Dice\Dice.vcxproj
E:\Projects\Dice\Debug\Dice.lib
E:\Projects\Dice\Debug\Dice.exp
^E:\Projects\Dice\Dice\Dice.vcxproj
E:\Projects\Dice\Debug\Dice.lib
E:\Projects\Dice\Debug\Dice.exp
