^E:\PROJECTS\DICE\DICE\INCLUDES\BULLET\SRC\LINEARMATH\LINEARMATH.DIR\DEBUG\BTALIGNEDALLOCATOR.OBJ|E:\PROJECTS\DICE\DICE\INCLUDES\BULLET\SRC\LINEARMATH\LINEARMATH.DIR\DEBUG\BTCONVEXHULL.OBJ|E:\PROJECTS\DICE\DICE\INCLUDES\BULLET\SRC\LINEARMATH\LINEARMATH.DIR\DEBUG\BTCONVEXHULLCOMPUTER.OBJ|E:\PROJECTS\DICE\DICE\INCLUDES\BULLET\SRC\LINEARMATH\LINEARMATH.DIR\DEBUG\BTGEOMETRYUTIL.OBJ|E:\PROJECTS\DICE\DICE\INCLUDES\BULLET\SRC\LINEARMATH\LINEARMATH.DIR\DEBUG\BTPOLARDECOMPOSITION.OBJ|E:\PROJECTS\DICE\DICE\INCLUDES\BULLET\SRC\LINEARMATH\LINEARMATH.DIR\DEBUG\BTQUICKPROF.OBJ|E:\PROJECTS\DICE\DICE\INCLUDES\BULLET\SRC\LINEARMATH\LINEARMATH.DIR\DEBUG\BTSERIALIZER.OBJ|E:\PROJECTS\DICE\DICE\INCLUDES\BULLET\SRC\LINEARMATH\LINEARMATH.DIR\DEBUG\BTSERIALIZER64.OBJ|E:\PROJECTS\DICE\DICE\INCLUDES\BULLET\SRC\LINEARMATH\LINEARMATH.DIR\DEBUG\BTTHREADS.OBJ|E:\PROJECTS\DICE\DICE\INCLUDES\BULLET\SRC\LINEARMATH\LINEARMATH.DIR\DEBUG\BTVECTOR3.OBJ
C:\WINDOWS\GLOBALIZATION\SORTING\SORTDEFAULT.NLS
E:\PROJECTS\DICE\DICE\INCLUDES\BULLET\SRC\LINEARMATH\LINEARMATH.DIR\DEBUG\BTALIGNEDALLOCATOR.OBJ
C:\WINDOWS\SYSTEM32\TZRES.DLL
E:\PROJECTS\DICE\DICE\INCLUDES\BULLET\SRC\LINEARMATH\LINEARMATH.DIR\DEBUG\BTCONVEXHULL.OBJ
E:\PROJECTS\DICE\DICE\INCLUDES\BULLET\SRC\LINEARMATH\LINEARMATH.DIR\DEBUG\BTCONVEXHULLCOMPUTER.OBJ
E:\PROJECTS\DICE\DICE\INCLUDES\BULLET\SRC\LINEARMATH\LINEARMATH.DIR\DEBUG\BTGEOMETRYUTIL.OBJ
E:\PROJECTS\DICE\DICE\INCLUDES\BULLET\SRC\LINEARMATH\LINEARMATH.DIR\DEBUG\BTPOLARDECOMPOSITION.OBJ
E:\PROJECTS\DICE\DICE\INCLUDES\BULLET\SRC\LINEARMATH\LINEARMATH.DIR\DEBUG\BTQUICKPROF.OBJ
E:\PROJECTS\DICE\DICE\INCLUDES\BULLET\SRC\LINEARMATH\LINEARMATH.DIR\DEBUG\BTSERIALIZER.OBJ
E:\PROJECTS\DICE\DICE\INCLUDES\BULLET\SRC\LINEARMATH\LINEARMATH.DIR\DEBUG\BTSERIALIZER64.OBJ
E:\PROJECTS\DICE\DICE\INCLUDES\BULLET\SRC\LINEARMATH\LINEARMATH.DIR\DEBUG\BTTHREADS.OBJ
E:\PROJECTS\DICE\DICE\INCLUDES\BULLET\SRC\LINEARMATH\LINEARMATH.DIR\DEBUG\BTVECTOR3.OBJ
