^E:\LIBRARIES\BULLET3-MASTER\BULLET3-MASTER\SRC\BULLET3COLLISION\BROADPHASECOLLISION\B3DYNAMICBVH.CPP
E:\LIBRARIES\BULLET3-MASTER\BULLET3-MASTER\SRC\BULLET3COLLISION\BROADPHASECOLLISION\B3DYNAMICBVH.H
E:\LIBRARIES\BULLET3-MASTER\BULLET3-MASTER\SRC\BULLET3COMMON\B3ALIGNEDOBJECTARRAY.H
E:\LIBRARIES\BULLET3-MASTER\BULLET3-MASTER\SRC\BULLET3COMMON\B3SCALAR.H
C:\PROGRAM FILES (X86)\WINDOWS KITS\10\INCLUDE\10.0.10150.0\UCRT\MATH.H
C:\PROGRAM FILES (X86)\WINDOWS KITS\10\INCLUDE\10.0.10150.0\UCRT\CORECRT.H
C:\PROGRAM FILES (X86)\MICROSOFT VISUAL STUDIO 14.0\VC\INCLUDE\VCRUNTIME.H
C:\PROGRAM FILES (X86)\MICROSOFT VISUAL STUDIO 14.0\VC\INCLUDE\SAL.H
C:\PROGRAM FILES (X86)\MICROSOFT VISUAL STUDIO 14.0\VC\INCLUDE\CONCURRENCYSAL.H
C:\PROGRAM FILES (X86)\MICROSOFT VISUAL STUDIO 14.0\VC\INCLUDE\VADEFS.H
C:\PROGRAM FILES (X86)\WINDOWS KITS\10\INCLUDE\10.0.10150.0\UCRT\STDLIB.H
C:\PROGRAM FILES (X86)\WINDOWS KITS\10\INCLUDE\10.0.10150.0\UCRT\CORECRT_MALLOC.H
C:\PROGRAM FILES (X86)\WINDOWS KITS\10\INCLUDE\10.0.10150.0\UCRT\CORECRT_SEARCH.H
C:\PROGRAM FILES (X86)\WINDOWS KITS\10\INCLUDE\10.0.10150.0\UCRT\STDDEF.H
C:\PROGRAM FILES (X86)\WINDOWS KITS\10\INCLUDE\10.0.10150.0\UCRT\CORECRT_WSTDLIB.H
C:\PROGRAM FILES (X86)\MICROSOFT VISUAL STUDIO 14.0\VC\INCLUDE\LIMITS.H
C:\PROGRAM FILES (X86)\WINDOWS KITS\10\INCLUDE\10.0.10150.0\UCRT\FLOAT.H
E:\LIBRARIES\BULLET3-MASTER\BULLET3-MASTER\SRC\BULLET3COMMON\B3LOGGING.H
C:\PROGRAM FILES (X86)\MICROSOFT VISUAL STUDIO 14.0\VC\INCLUDE\EMMINTRIN.H
C:\PROGRAM FILES (X86)\MICROSOFT VISUAL STUDIO 14.0\VC\INCLUDE\XMMINTRIN.H
C:\PROGRAM FILES (X86)\MICROSOFT VISUAL STUDIO 14.0\VC\INCLUDE\MMINTRIN.H
C:\PROGRAM FILES (X86)\WINDOWS KITS\10\INCLUDE\10.0.10150.0\UCRT\MALLOC.H
C:\PROGRAM FILES (X86)\WINDOWS KITS\10\INCLUDE\10.0.10150.0\UCRT\STDIO.H
C:\PROGRAM FILES (X86)\WINDOWS KITS\10\INCLUDE\10.0.10150.0\UCRT\CORECRT_WSTDIO.H
C:\PROGRAM FILES (X86)\WINDOWS KITS\10\INCLUDE\10.0.10150.0\UCRT\CORECRT_STDIO_CONFIG.H
E:\LIBRARIES\BULLET3-MASTER\BULLET3-MASTER\SRC\BULLET3COMMON\B3ALIGNEDALLOCATOR.H
C:\PROGRAM FILES (X86)\MICROSOFT VISUAL STUDIO 14.0\VC\INCLUDE\NEW
C:\PROGRAM FILES (X86)\MICROSOFT VISUAL STUDIO 14.0\VC\INCLUDE\EXCEPTION
C:\PROGRAM FILES (X86)\MICROSOFT VISUAL STUDIO 14.0\VC\INCLUDE\TYPE_TRAITS
C:\PROGRAM FILES (X86)\MICROSOFT VISUAL STUDIO 14.0\VC\INCLUDE\XSTDDEF
C:\PROGRAM FILES (X86)\MICROSOFT VISUAL STUDIO 14.0\VC\INCLUDE\CSTDDEF
C:\PROGRAM FILES (X86)\MICROSOFT VISUAL STUDIO 14.0\VC\INCLUDE\YVALS.H
C:\PROGRAM FILES (X86)\MICROSOFT VISUAL STUDIO 14.0\VC\INCLUDE\XKEYCHECK.H
C:\PROGRAM FILES (X86)\MICROSOFT VISUAL STUDIO 14.0\VC\INCLUDE\CRTDEFS.H
C:\PROGRAM FILES (X86)\MICROSOFT VISUAL STUDIO 14.0\VC\INCLUDE\USE_ANSI.H
C:\PROGRAM FILES (X86)\MICROSOFT VISUAL STUDIO 14.0\VC\INCLUDE\CSTDLIB
C:\PROGRAM FILES (X86)\MICROSOFT VISUAL STUDIO 14.0\VC\INCLUDE\INITIALIZER_LIST
C:\PROGRAM FILES (X86)\MICROSOFT VISUAL STUDIO 14.0\VC\INCLUDE\XTR1COMMON
C:\PROGRAM FILES (X86)\MICROSOFT VISUAL STUDIO 14.0\VC\INCLUDE\VCRUNTIME_EXCEPTION.H
C:\PROGRAM FILES (X86)\MICROSOFT VISUAL STUDIO 14.0\VC\INCLUDE\EH.H
C:\PROGRAM FILES (X86)\WINDOWS KITS\10\INCLUDE\10.0.10150.0\UCRT\CORECRT_TERMINATE.H
C:\PROGRAM FILES (X86)\MICROSOFT VISUAL STUDIO 14.0\VC\INCLUDE\VCRUNTIME_NEW.H
E:\LIBRARIES\BULLET3-MASTER\BULLET3-MASTER\SRC\BULLET3COMMON\B3VECTOR3.H
E:\LIBRARIES\BULLET3-MASTER\BULLET3-MASTER\SRC\BULLET3COMMON\B3MINMAX.H
E:\LIBRARIES\BULLET3-MASTER\BULLET3-MASTER\SRC\BULLET3COMMON\B3TRANSFORM.H
E:\LIBRARIES\BULLET3-MASTER\BULLET3-MASTER\SRC\BULLET3COMMON\B3MATRIX3X3.H
E:\LIBRARIES\BULLET3-MASTER\BULLET3-MASTER\SRC\BULLET3COMMON\B3QUATERNION.H
E:\LIBRARIES\BULLET3-MASTER\BULLET3-MASTER\SRC\BULLET3COMMON\B3QUADWORD.H
E:\LIBRARIES\BULLET3-MASTER\BULLET3-MASTER\SRC\BULLET3GEOMETRY\B3AABBUTIL.H
C:\PROGRAM FILES (X86)\WINDOWS KITS\10\INCLUDE\10.0.10150.0\UCRT\MEMORY.H
C:\PROGRAM FILES (X86)\WINDOWS KITS\10\INCLUDE\10.0.10150.0\UCRT\CORECRT_MEMORY.H
C:\PROGRAM FILES (X86)\WINDOWS KITS\10\INCLUDE\10.0.10150.0\UCRT\CORECRT_MEMCPY_S.H
C:\PROGRAM FILES (X86)\WINDOWS KITS\10\INCLUDE\10.0.10150.0\UCRT\ERRNO.H
C:\PROGRAM FILES (X86)\MICROSOFT VISUAL STUDIO 14.0\VC\INCLUDE\VCRUNTIME_STRING.H
C:\PROGRAM FILES (X86)\WINDOWS KITS\10\INCLUDE\10.0.10150.0\UCRT\STRING.H
C:\PROGRAM FILES (X86)\WINDOWS KITS\10\INCLUDE\10.0.10150.0\UCRT\CORECRT_WSTRING.H
^E:\LIBRARIES\BULLET3-MASTER\BULLET3-MASTER\SRC\BULLET3COLLISION\BROADPHASECOLLISION\B3DYNAMICBVHBROADPHASE.CPP
E:\LIBRARIES\BULLET3-MASTER\BULLET3-MASTER\SRC\BULLET3COLLISION\BROADPHASECOLLISION\B3DYNAMICBVHBROADPHASE.H
E:\LIBRARIES\BULLET3-MASTER\BULLET3-MASTER\SRC\BULLET3COLLISION\BROADPHASECOLLISION\B3DYNAMICBVH.H
E:\LIBRARIES\BULLET3-MASTER\BULLET3-MASTER\SRC\BULLET3COMMON\B3ALIGNEDOBJECTARRAY.H
E:\LIBRARIES\BULLET3-MASTER\BULLET3-MASTER\SRC\BULLET3COMMON\B3SCALAR.H
C:\PROGRAM FILES (X86)\WINDOWS KITS\10\INCLUDE\10.0.10150.0\UCRT\MATH.H
C:\PROGRAM FILES (X86)\WINDOWS KITS\10\INCLUDE\10.0.10150.0\UCRT\CORECRT.H
C:\PROGRAM FILES (X86)\MICROSOFT VISUAL STUDIO 14.0\VC\INCLUDE\VCRUNTIME.H
C:\PROGRAM FILES (X86)\MICROSOFT VISUAL STUDIO 14.0\VC\INCLUDE\SAL.H
C:\PROGRAM FILES (X86)\MICROSOFT VISUAL STUDIO 14.0\VC\INCLUDE\CONCURRENCYSAL.H
C:\PROGRAM FILES (X86)\MICROSOFT VISUAL STUDIO 14.0\VC\INCLUDE\VADEFS.H
C:\PROGRAM FILES (X86)\WINDOWS KITS\10\INCLUDE\10.0.10150.0\UCRT\STDLIB.H
C:\PROGRAM FILES (X86)\WINDOWS KITS\10\INCLUDE\10.0.10150.0\UCRT\CORECRT_MALLOC.H
C:\PROGRAM FILES (X86)\WINDOWS KITS\10\INCLUDE\10.0.10150.0\UCRT\CORECRT_SEARCH.H
C:\PROGRAM FILES (X86)\WINDOWS KITS\10\INCLUDE\10.0.10150.0\UCRT\STDDEF.H
C:\PROGRAM FILES (X86)\WINDOWS KITS\10\INCLUDE\10.0.10150.0\UCRT\CORECRT_WSTDLIB.H
C:\PROGRAM FILES (X86)\MICROSOFT VISUAL STUDIO 14.0\VC\INCLUDE\LIMITS.H
C:\PROGRAM FILES (X86)\WINDOWS KITS\10\INCLUDE\10.0.10150.0\UCRT\FLOAT.H
E:\LIBRARIES\BULLET3-MASTER\BULLET3-MASTER\SRC\BULLET3COMMON\B3LOGGING.H
C:\PROGRAM FILES (X86)\MICROSOFT VISUAL STUDIO 14.0\VC\INCLUDE\EMMINTRIN.H
C:\PROGRAM FILES (X86)\MICROSOFT VISUAL STUDIO 14.0\VC\INCLUDE\XMMINTRIN.H
C:\PROGRAM FILES (X86)\MICROSOFT VISUAL STUDIO 14.0\VC\INCLUDE\MMINTRIN.H
C:\PROGRAM FILES (X86)\WINDOWS KITS\10\INCLUDE\10.0.10150.0\UCRT\MALLOC.H
C:\PROGRAM FILES (X86)\WINDOWS KITS\10\INCLUDE\10.0.10150.0\UCRT\STDIO.H
C:\PROGRAM FILES (X86)\WINDOWS KITS\10\INCLUDE\10.0.10150.0\UCRT\CORECRT_WSTDIO.H
C:\PROGRAM FILES (X86)\WINDOWS KITS\10\INCLUDE\10.0.10150.0\UCRT\CORECRT_STDIO_CONFIG.H
E:\LIBRARIES\BULLET3-MASTER\BULLET3-MASTER\SRC\BULLET3COMMON\B3ALIGNEDALLOCATOR.H
C:\PROGRAM FILES (X86)\MICROSOFT VISUAL STUDIO 14.0\VC\INCLUDE\NEW
C:\PROGRAM FILES (X86)\MICROSOFT VISUAL STUDIO 14.0\VC\INCLUDE\EXCEPTION
C:\PROGRAM FILES (X86)\MICROSOFT VISUAL STUDIO 14.0\VC\INCLUDE\TYPE_TRAITS
C:\PROGRAM FILES (X86)\MICROSOFT VISUAL STUDIO 14.0\VC\INCLUDE\XSTDDEF
C:\PROGRAM FILES (X86)\MICROSOFT VISUAL STUDIO 14.0\VC\INCLUDE\CSTDDEF
C:\PROGRAM FILES (X86)\MICROSOFT VISUAL STUDIO 14.0\VC\INCLUDE\YVALS.H
C:\PROGRAM FILES (X86)\MICROSOFT VISUAL STUDIO 14.0\VC\INCLUDE\XKEYCHECK.H
C:\PROGRAM FILES (X86)\MICROSOFT VISUAL STUDIO 14.0\VC\INCLUDE\CRTDEFS.H
C:\PROGRAM FILES (X86)\MICROSOFT VISUAL STUDIO 14.0\VC\INCLUDE\USE_ANSI.H
C:\PROGRAM FILES (X86)\MICROSOFT VISUAL STUDIO 14.0\VC\INCLUDE\CSTDLIB
C:\PROGRAM FILES (X86)\MICROSOFT VISUAL STUDIO 14.0\VC\INCLUDE\INITIALIZER_LIST
C:\PROGRAM FILES (X86)\MICROSOFT VISUAL STUDIO 14.0\VC\INCLUDE\XTR1COMMON
C:\PROGRAM FILES (X86)\MICROSOFT VISUAL STUDIO 14.0\VC\INCLUDE\VCRUNTIME_EXCEPTION.H
C:\PROGRAM FILES (X86)\MICROSOFT VISUAL STUDIO 14.0\VC\INCLUDE\EH.H
C:\PROGRAM FILES (X86)\WINDOWS KITS\10\INCLUDE\10.0.10150.0\UCRT\CORECRT_TERMINATE.H
C:\PROGRAM FILES (X86)\MICROSOFT VISUAL STUDIO 14.0\VC\INCLUDE\VCRUNTIME_NEW.H
E:\LIBRARIES\BULLET3-MASTER\BULLET3-MASTER\SRC\BULLET3COMMON\B3VECTOR3.H
E:\LIBRARIES\BULLET3-MASTER\BULLET3-MASTER\SRC\BULLET3COMMON\B3MINMAX.H
E:\LIBRARIES\BULLET3-MASTER\BULLET3-MASTER\SRC\BULLET3COMMON\B3TRANSFORM.H
E:\LIBRARIES\BULLET3-MASTER\BULLET3-MASTER\SRC\BULLET3COMMON\B3MATRIX3X3.H
E:\LIBRARIES\BULLET3-MASTER\BULLET3-MASTER\SRC\BULLET3COMMON\B3QUATERNION.H
E:\LIBRARIES\BULLET3-MASTER\BULLET3-MASTER\SRC\BULLET3COMMON\B3QUADWORD.H
E:\LIBRARIES\BULLET3-MASTER\BULLET3-MASTER\SRC\BULLET3GEOMETRY\B3AABBUTIL.H
C:\PROGRAM FILES (X86)\WINDOWS KITS\10\INCLUDE\10.0.10150.0\UCRT\MEMORY.H
C:\PROGRAM FILES (X86)\WINDOWS KITS\10\INCLUDE\10.0.10150.0\UCRT\CORECRT_MEMORY.H
C:\PROGRAM FILES (X86)\WINDOWS KITS\10\INCLUDE\10.0.10150.0\UCRT\CORECRT_MEMCPY_S.H
C:\PROGRAM FILES (X86)\WINDOWS KITS\10\INCLUDE\10.0.10150.0\UCRT\ERRNO.H
C:\PROGRAM FILES (X86)\MICROSOFT VISUAL STUDIO 14.0\VC\INCLUDE\VCRUNTIME_STRING.H
C:\PROGRAM FILES (X86)\WINDOWS KITS\10\INCLUDE\10.0.10150.0\UCRT\STRING.H
C:\PROGRAM FILES (X86)\WINDOWS KITS\10\INCLUDE\10.0.10150.0\UCRT\CORECRT_WSTRING.H
E:\LIBRARIES\BULLET3-MASTER\BULLET3-MASTER\SRC\BULLET3COLLISION\BROADPHASECOLLISION\B3OVERLAPPINGPAIRCACHE.H
E:\LIBRARIES\BULLET3-MASTER\BULLET3-MASTER\SRC\BULLET3COMMON\SHARED\B3INT2.H
E:\LIBRARIES\BULLET3-MASTER\BULLET3-MASTER\SRC\BULLET3COLLISION\BROADPHASECOLLISION\B3OVERLAPPINGPAIR.H
E:\LIBRARIES\BULLET3-MASTER\BULLET3-MASTER\SRC\BULLET3COMMON\SHARED\B3INT4.H
E:\LIBRARIES\BULLET3-MASTER\BULLET3-MASTER\SRC\BULLET3COLLISION\BROADPHASECOLLISION\B3BROADPHASECALLBACK.H
^E:\LIBRARIES\BULLET3-MASTER\BULLET3-MASTER\SRC\BULLET3COLLISION\BROADPHASECOLLISION\B3OVERLAPPINGPAIRCACHE.CPP
E:\LIBRARIES\BULLET3-MASTER\BULLET3-MASTER\SRC\BULLET3COLLISION\BROADPHASECOLLISION\B3OVERLAPPINGPAIRCACHE.H
E:\LIBRARIES\BULLET3-MASTER\BULLET3-MASTER\SRC\BULLET3COMMON\SHARED\B3INT2.H
E:\LIBRARIES\BULLET3-MASTER\BULLET3-MASTER\SRC\BULLET3COMMON\B3ALIGNEDOBJECTARRAY.H
E:\LIBRARIES\BULLET3-MASTER\BULLET3-MASTER\SRC\BULLET3COMMON\B3SCALAR.H
C:\PROGRAM FILES (X86)\WINDOWS KITS\10\INCLUDE\10.0.10150.0\UCRT\MATH.H
C:\PROGRAM FILES (X86)\WINDOWS KITS\10\INCLUDE\10.0.10150.0\UCRT\CORECRT.H
C:\PROGRAM FILES (X86)\MICROSOFT VISUAL STUDIO 14.0\VC\INCLUDE\VCRUNTIME.H
C:\PROGRAM FILES (X86)\MICROSOFT VISUAL STUDIO 14.0\VC\INCLUDE\SAL.H
C:\PROGRAM FILES (X86)\MICROSOFT VISUAL STUDIO 14.0\VC\INCLUDE\CONCURRENCYSAL.H
C:\PROGRAM FILES (X86)\MICROSOFT VISUAL STUDIO 14.0\VC\INCLUDE\VADEFS.H
C:\PROGRAM FILES (X86)\WINDOWS KITS\10\INCLUDE\10.0.10150.0\UCRT\STDLIB.H
C:\PROGRAM FILES (X86)\WINDOWS KITS\10\INCLUDE\10.0.10150.0\UCRT\CORECRT_MALLOC.H
C:\PROGRAM FILES (X86)\WINDOWS KITS\10\INCLUDE\10.0.10150.0\UCRT\CORECRT_SEARCH.H
C:\PROGRAM FILES (X86)\WINDOWS KITS\10\INCLUDE\10.0.10150.0\UCRT\STDDEF.H
C:\PROGRAM FILES (X86)\WINDOWS KITS\10\INCLUDE\10.0.10150.0\UCRT\CORECRT_WSTDLIB.H
C:\PROGRAM FILES (X86)\MICROSOFT VISUAL STUDIO 14.0\VC\INCLUDE\LIMITS.H
C:\PROGRAM FILES (X86)\WINDOWS KITS\10\INCLUDE\10.0.10150.0\UCRT\FLOAT.H
E:\LIBRARIES\BULLET3-MASTER\BULLET3-MASTER\SRC\BULLET3COMMON\B3LOGGING.H
C:\PROGRAM FILES (X86)\MICROSOFT VISUAL STUDIO 14.0\VC\INCLUDE\EMMINTRIN.H
C:\PROGRAM FILES (X86)\MICROSOFT VISUAL STUDIO 14.0\VC\INCLUDE\XMMINTRIN.H
C:\PROGRAM FILES (X86)\MICROSOFT VISUAL STUDIO 14.0\VC\INCLUDE\MMINTRIN.H
C:\PROGRAM FILES (X86)\WINDOWS KITS\10\INCLUDE\10.0.10150.0\UCRT\MALLOC.H
C:\PROGRAM FILES (X86)\WINDOWS KITS\10\INCLUDE\10.0.10150.0\UCRT\STDIO.H
C:\PROGRAM FILES (X86)\WINDOWS KITS\10\INCLUDE\10.0.10150.0\UCRT\CORECRT_WSTDIO.H
C:\PROGRAM FILES (X86)\WINDOWS KITS\10\INCLUDE\10.0.10150.0\UCRT\CORECRT_STDIO_CONFIG.H
E:\LIBRARIES\BULLET3-MASTER\BULLET3-MASTER\SRC\BULLET3COMMON\B3ALIGNEDALLOCATOR.H
C:\PROGRAM FILES (X86)\MICROSOFT VISUAL STUDIO 14.0\VC\INCLUDE\NEW
C:\PROGRAM FILES (X86)\MICROSOFT VISUAL STUDIO 14.0\VC\INCLUDE\EXCEPTION
C:\PROGRAM FILES (X86)\MICROSOFT VISUAL STUDIO 14.0\VC\INCLUDE\TYPE_TRAITS
C:\PROGRAM FILES (X86)\MICROSOFT VISUAL STUDIO 14.0\VC\INCLUDE\XSTDDEF
C:\PROGRAM FILES (X86)\MICROSOFT VISUAL STUDIO 14.0\VC\INCLUDE\CSTDDEF
C:\PROGRAM FILES (X86)\MICROSOFT VISUAL STUDIO 14.0\VC\INCLUDE\YVALS.H
C:\PROGRAM FILES (X86)\MICROSOFT VISUAL STUDIO 14.0\VC\INCLUDE\XKEYCHECK.H
C:\PROGRAM FILES (X86)\MICROSOFT VISUAL STUDIO 14.0\VC\INCLUDE\CRTDEFS.H
C:\PROGRAM FILES (X86)\MICROSOFT VISUAL STUDIO 14.0\VC\INCLUDE\USE_ANSI.H
C:\PROGRAM FILES (X86)\MICROSOFT VISUAL STUDIO 14.0\VC\INCLUDE\CSTDLIB
C:\PROGRAM FILES (X86)\MICROSOFT VISUAL STUDIO 14.0\VC\INCLUDE\INITIALIZER_LIST
C:\PROGRAM FILES (X86)\MICROSOFT VISUAL STUDIO 14.0\VC\INCLUDE\XTR1COMMON
C:\PROGRAM FILES (X86)\MICROSOFT VISUAL STUDIO 14.0\VC\INCLUDE\VCRUNTIME_EXCEPTION.H
C:\PROGRAM FILES (X86)\MICROSOFT VISUAL STUDIO 14.0\VC\INCLUDE\EH.H
C:\PROGRAM FILES (X86)\WINDOWS KITS\10\INCLUDE\10.0.10150.0\UCRT\CORECRT_TERMINATE.H
C:\PROGRAM FILES (X86)\MICROSOFT VISUAL STUDIO 14.0\VC\INCLUDE\VCRUNTIME_NEW.H
E:\LIBRARIES\BULLET3-MASTER\BULLET3-MASTER\SRC\BULLET3COLLISION\BROADPHASECOLLISION\B3OVERLAPPINGPAIR.H
E:\LIBRARIES\BULLET3-MASTER\BULLET3-MASTER\SRC\BULLET3COMMON\SHARED\B3INT4.H
E:\LIBRARIES\BULLET3-MASTER\BULLET3-MASTER\SRC\BULLET3GEOMETRY\B3AABBUTIL.H
E:\LIBRARIES\BULLET3-MASTER\BULLET3-MASTER\SRC\BULLET3COMMON\B3TRANSFORM.H
E:\LIBRARIES\BULLET3-MASTER\BULLET3-MASTER\SRC\BULLET3COMMON\B3MATRIX3X3.H
E:\LIBRARIES\BULLET3-MASTER\BULLET3-MASTER\SRC\BULLET3COMMON\B3VECTOR3.H
E:\LIBRARIES\BULLET3-MASTER\BULLET3-MASTER\SRC\BULLET3COMMON\B3MINMAX.H
E:\LIBRARIES\BULLET3-MASTER\BULLET3-MASTER\SRC\BULLET3COMMON\B3QUATERNION.H
E:\LIBRARIES\BULLET3-MASTER\BULLET3-MASTER\SRC\BULLET3COMMON\B3QUADWORD.H
^E:\LIBRARIES\BULLET3-MASTER\BULLET3-MASTER\SRC\BULLET3COLLISION\NARROWPHASECOLLISION\B3CONVEXUTILITY.CPP
E:\LIBRARIES\BULLET3-MASTER\BULLET3-MASTER\SRC\BULLET3COLLISION\NARROWPHASECOLLISION\B3CONVEXUTILITY.H
E:\LIBRARIES\BULLET3-MASTER\BULLET3-MASTER\SRC\BULLET3COMMON\B3ALIGNEDOBJECTARRAY.H
E:\LIBRARIES\BULLET3-MASTER\BULLET3-MASTER\SRC\BULLET3COMMON\B3SCALAR.H
C:\PROGRAM FILES (X86)\WINDOWS KITS\10\INCLUDE\10.0.10150.0\UCRT\MATH.H
C:\PROGRAM FILES (X86)\WINDOWS KITS\10\INCLUDE\10.0.10150.0\UCRT\CORECRT.H
C:\PROGRAM FILES (X86)\MICROSOFT VISUAL STUDIO 14.0\VC\INCLUDE\VCRUNTIME.H
C:\PROGRAM FILES (X86)\MICROSOFT VISUAL STUDIO 14.0\VC\INCLUDE\SAL.H
C:\PROGRAM FILES (X86)\MICROSOFT VISUAL STUDIO 14.0\VC\INCLUDE\CONCURRENCYSAL.H
C:\PROGRAM FILES (X86)\MICROSOFT VISUAL STUDIO 14.0\VC\INCLUDE\VADEFS.H
C:\PROGRAM FILES (X86)\WINDOWS KITS\10\INCLUDE\10.0.10150.0\UCRT\STDLIB.H
C:\PROGRAM FILES (X86)\WINDOWS KITS\10\INCLUDE\10.0.10150.0\UCRT\CORECRT_MALLOC.H
C:\PROGRAM FILES (X86)\WINDOWS KITS\10\INCLUDE\10.0.10150.0\UCRT\CORECRT_SEARCH.H
C:\PROGRAM FILES (X86)\WINDOWS KITS\10\INCLUDE\10.0.10150.0\UCRT\STDDEF.H
C:\PROGRAM FILES (X86)\WINDOWS KITS\10\INCLUDE\10.0.10150.0\UCRT\CORECRT_WSTDLIB.H
C:\PROGRAM FILES (X86)\MICROSOFT VISUAL STUDIO 14.0\VC\INCLUDE\LIMITS.H
C:\PROGRAM FILES (X86)\WINDOWS KITS\10\INCLUDE\10.0.10150.0\UCRT\FLOAT.H
E:\LIBRARIES\BULLET3-MASTER\BULLET3-MASTER\SRC\BULLET3COMMON\B3LOGGING.H
C:\PROGRAM FILES (X86)\MICROSOFT VISUAL STUDIO 14.0\VC\INCLUDE\EMMINTRIN.H
C:\PROGRAM FILES (X86)\MICROSOFT VISUAL STUDIO 14.0\VC\INCLUDE\XMMINTRIN.H
C:\PROGRAM FILES (X86)\MICROSOFT VISUAL STUDIO 14.0\VC\INCLUDE\MMINTRIN.H
C:\PROGRAM FILES (X86)\WINDOWS KITS\10\INCLUDE\10.0.10150.0\UCRT\MALLOC.H
C:\PROGRAM FILES (X86)\WINDOWS KITS\10\INCLUDE\10.0.10150.0\UCRT\STDIO.H
C:\PROGRAM FILES (X86)\WINDOWS KITS\10\INCLUDE\10.0.10150.0\UCRT\CORECRT_WSTDIO.H
C:\PROGRAM FILES (X86)\WINDOWS KITS\10\INCLUDE\10.0.10150.0\UCRT\CORECRT_STDIO_CONFIG.H
E:\LIBRARIES\BULLET3-MASTER\BULLET3-MASTER\SRC\BULLET3COMMON\B3ALIGNEDALLOCATOR.H
C:\PROGRAM FILES (X86)\MICROSOFT VISUAL STUDIO 14.0\VC\INCLUDE\NEW
C:\PROGRAM FILES (X86)\MICROSOFT VISUAL STUDIO 14.0\VC\INCLUDE\EXCEPTION
C:\PROGRAM FILES (X86)\MICROSOFT VISUAL STUDIO 14.0\VC\INCLUDE\TYPE_TRAITS
C:\PROGRAM FILES (X86)\MICROSOFT VISUAL STUDIO 14.0\VC\INCLUDE\XSTDDEF
C:\PROGRAM FILES (X86)\MICROSOFT VISUAL STUDIO 14.0\VC\INCLUDE\CSTDDEF
C:\PROGRAM FILES (X86)\MICROSOFT VISUAL STUDIO 14.0\VC\INCLUDE\YVALS.H
C:\PROGRAM FILES (X86)\MICROSOFT VISUAL STUDIO 14.0\VC\INCLUDE\XKEYCHECK.H
C:\PROGRAM FILES (X86)\MICROSOFT VISUAL STUDIO 14.0\VC\INCLUDE\CRTDEFS.H
C:\PROGRAM FILES (X86)\MICROSOFT VISUAL STUDIO 14.0\VC\INCLUDE\USE_ANSI.H
C:\PROGRAM FILES (X86)\MICROSOFT VISUAL STUDIO 14.0\VC\INCLUDE\CSTDLIB
C:\PROGRAM FILES (X86)\MICROSOFT VISUAL STUDIO 14.0\VC\INCLUDE\INITIALIZER_LIST
C:\PROGRAM FILES (X86)\MICROSOFT VISUAL STUDIO 14.0\VC\INCLUDE\XTR1COMMON
C:\PROGRAM FILES (X86)\MICROSOFT VISUAL STUDIO 14.0\VC\INCLUDE\VCRUNTIME_EXCEPTION.H
C:\PROGRAM FILES (X86)\MICROSOFT VISUAL STUDIO 14.0\VC\INCLUDE\EH.H
C:\PROGRAM FILES (X86)\WINDOWS KITS\10\INCLUDE\10.0.10150.0\UCRT\CORECRT_TERMINATE.H
C:\PROGRAM FILES (X86)\MICROSOFT VISUAL STUDIO 14.0\VC\INCLUDE\VCRUNTIME_NEW.H
E:\LIBRARIES\BULLET3-MASTER\BULLET3-MASTER\SRC\BULLET3COMMON\B3TRANSFORM.H
E:\LIBRARIES\BULLET3-MASTER\BULLET3-MASTER\SRC\BULLET3COMMON\B3MATRIX3X3.H
E:\LIBRARIES\BULLET3-MASTER\BULLET3-MASTER\SRC\BULLET3COMMON\B3VECTOR3.H
E:\LIBRARIES\BULLET3-MASTER\BULLET3-MASTER\SRC\BULLET3COMMON\B3MINMAX.H
E:\LIBRARIES\BULLET3-MASTER\BULLET3-MASTER\SRC\BULLET3COMMON\B3QUATERNION.H
E:\LIBRARIES\BULLET3-MASTER\BULLET3-MASTER\SRC\BULLET3COMMON\B3QUADWORD.H
E:\LIBRARIES\BULLET3-MASTER\BULLET3-MASTER\SRC\BULLET3GEOMETRY\B3CONVEXHULLCOMPUTER.H
E:\LIBRARIES\BULLET3-MASTER\BULLET3-MASTER\SRC\BULLET3GEOMETRY\B3GRAHAMSCAN2DCONVEXHULL.H
E:\LIBRARIES\BULLET3-MASTER\BULLET3-MASTER\SRC\BULLET3COMMON\B3HASHMAP.H
C:\PROGRAM FILES (X86)\MICROSOFT VISUAL STUDIO 14.0\VC\INCLUDE\STRING
C:\PROGRAM FILES (X86)\MICROSOFT VISUAL STUDIO 14.0\VC\INCLUDE\ISTREAM
C:\PROGRAM FILES (X86)\MICROSOFT VISUAL STUDIO 14.0\VC\INCLUDE\OSTREAM
C:\PROGRAM FILES (X86)\MICROSOFT VISUAL STUDIO 14.0\VC\INCLUDE\IOS
C:\PROGRAM FILES (X86)\MICROSOFT VISUAL STUDIO 14.0\VC\INCLUDE\XLOCNUM
C:\PROGRAM FILES (X86)\MICROSOFT VISUAL STUDIO 14.0\VC\INCLUDE\CLIMITS
C:\PROGRAM FILES (X86)\MICROSOFT VISUAL STUDIO 14.0\VC\INCLUDE\CMATH
C:\PROGRAM FILES (X86)\MICROSOFT VISUAL STUDIO 14.0\VC\INCLUDE\XTGMATH.H
C:\PROGRAM FILES (X86)\MICROSOFT VISUAL STUDIO 14.0\VC\INCLUDE\CSTDIO
C:\PROGRAM FILES (X86)\MICROSOFT VISUAL STUDIO 14.0\VC\INCLUDE\STREAMBUF
C:\PROGRAM FILES (X86)\MICROSOFT VISUAL STUDIO 14.0\VC\INCLUDE\XIOSBASE
C:\PROGRAM FILES (X86)\MICROSOFT VISUAL STUDIO 14.0\VC\INCLUDE\XLOCALE
C:\PROGRAM FILES (X86)\MICROSOFT VISUAL STUDIO 14.0\VC\INCLUDE\CSTRING
C:\PROGRAM FILES (X86)\WINDOWS KITS\10\INCLUDE\10.0.10150.0\UCRT\STRING.H
C:\PROGRAM FILES (X86)\WINDOWS KITS\10\INCLUDE\10.0.10150.0\UCRT\CORECRT_MEMORY.H
C:\PROGRAM FILES (X86)\WINDOWS KITS\10\INCLUDE\10.0.10150.0\UCRT\CORECRT_MEMCPY_S.H
C:\PROGRAM FILES (X86)\WINDOWS KITS\10\INCLUDE\10.0.10150.0\UCRT\ERRNO.H
C:\PROGRAM FILES (X86)\MICROSOFT VISUAL STUDIO 14.0\VC\INCLUDE\VCRUNTIME_STRING.H
C:\PROGRAM FILES (X86)\WINDOWS KITS\10\INCLUDE\10.0.10150.0\UCRT\CORECRT_WSTRING.H
C:\PROGRAM FILES (X86)\MICROSOFT VISUAL STUDIO 14.0\VC\INCLUDE\STDEXCEPT
C:\PROGRAM FILES (X86)\MICROSOFT VISUAL STUDIO 14.0\VC\INCLUDE\XSTRING
C:\PROGRAM FILES (X86)\MICROSOFT VISUAL STUDIO 14.0\VC\INCLUDE\XMEMORY0
C:\PROGRAM FILES (X86)\MICROSOFT VISUAL STUDIO 14.0\VC\INCLUDE\CSTDINT
C:\PROGRAM FILES (X86)\MICROSOFT VISUAL STUDIO 14.0\VC\INCLUDE\STDINT.H
C:\PROGRAM FILES (X86)\MICROSOFT VISUAL STUDIO 14.0\VC\INCLUDE\LIMITS
C:\PROGRAM FILES (X86)\MICROSOFT VISUAL STUDIO 14.0\VC\INCLUDE\YMATH.H
C:\PROGRAM FILES (X86)\MICROSOFT VISUAL STUDIO 14.0\VC\INCLUDE\CFLOAT
C:\PROGRAM FILES (X86)\MICROSOFT VISUAL STUDIO 14.0\VC\INCLUDE\CWCHAR
C:\PROGRAM FILES (X86)\WINDOWS KITS\10\INCLUDE\10.0.10150.0\UCRT\WCHAR.H
C:\PROGRAM FILES (X86)\WINDOWS KITS\10\INCLUDE\10.0.10150.0\UCRT\CORECRT_WCONIO.H
C:\PROGRAM FILES (X86)\WINDOWS KITS\10\INCLUDE\10.0.10150.0\UCRT\CORECRT_WCTYPE.H
C:\PROGRAM FILES (X86)\WINDOWS KITS\10\INCLUDE\10.0.10150.0\UCRT\CORECRT_WDIRECT.H
C:\PROGRAM FILES (X86)\WINDOWS KITS\10\INCLUDE\10.0.10150.0\UCRT\CORECRT_WIO.H
C:\PROGRAM FILES (X86)\WINDOWS KITS\10\INCLUDE\10.0.10150.0\UCRT\CORECRT_SHARE.H
C:\PROGRAM FILES (X86)\WINDOWS KITS\10\INCLUDE\10.0.10150.0\UCRT\CORECRT_WPROCESS.H
C:\PROGRAM FILES (X86)\WINDOWS KITS\10\INCLUDE\10.0.10150.0\UCRT\CORECRT_WTIME.H
C:\PROGRAM FILES (X86)\WINDOWS KITS\10\INCLUDE\10.0.10150.0\UCRT\SYS\STAT.H
C:\PROGRAM FILES (X86)\WINDOWS KITS\10\INCLUDE\10.0.10150.0\UCRT\SYS\TYPES.H
C:\PROGRAM FILES (X86)\MICROSOFT VISUAL STUDIO 14.0\VC\INCLUDE\XUTILITY
C:\PROGRAM FILES (X86)\MICROSOFT VISUAL STUDIO 14.0\VC\INCLUDE\UTILITY
C:\PROGRAM FILES (X86)\MICROSOFT VISUAL STUDIO 14.0\VC\INCLUDE\IOSFWD
C:\PROGRAM FILES (X86)\WINDOWS KITS\10\INCLUDE\10.0.10150.0\UCRT\CRTDBG.H
C:\PROGRAM FILES (X86)\MICROSOFT VISUAL STUDIO 14.0\VC\INCLUDE\VCRUNTIME_NEW_DEBUG.H
C:\PROGRAM FILES (X86)\MICROSOFT VISUAL STUDIO 14.0\VC\INCLUDE\XATOMIC0.H
C:\PROGRAM FILES (X86)\MICROSOFT VISUAL STUDIO 14.0\VC\INCLUDE\INTRIN.H
C:\PROGRAM FILES (X86)\MICROSOFT VISUAL STUDIO 14.0\VC\INCLUDE\SETJMP.H
C:\PROGRAM FILES (X86)\MICROSOFT VISUAL STUDIO 14.0\VC\INCLUDE\IMMINTRIN.H
C:\PROGRAM FILES (X86)\MICROSOFT VISUAL STUDIO 14.0\VC\INCLUDE\WMMINTRIN.H
C:\PROGRAM FILES (X86)\MICROSOFT VISUAL STUDIO 14.0\VC\INCLUDE\NMMINTRIN.H
C:\PROGRAM FILES (X86)\MICROSOFT VISUAL STUDIO 14.0\VC\INCLUDE\SMMINTRIN.H
C:\PROGRAM FILES (X86)\MICROSOFT VISUAL STUDIO 14.0\VC\INCLUDE\TMMINTRIN.H
C:\PROGRAM FILES (X86)\MICROSOFT VISUAL STUDIO 14.0\VC\INCLUDE\PMMINTRIN.H
C:\PROGRAM FILES (X86)\MICROSOFT VISUAL STUDIO 14.0\VC\INCLUDE\AMMINTRIN.H
C:\PROGRAM FILES (X86)\MICROSOFT VISUAL STUDIO 14.0\VC\INCLUDE\MM3DNOW.H
C:\PROGRAM FILES (X86)\MICROSOFT VISUAL STUDIO 14.0\VC\INCLUDE\TYPEINFO
C:\PROGRAM FILES (X86)\MICROSOFT VISUAL STUDIO 14.0\VC\INCLUDE\VCRUNTIME_TYPEINFO.H
C:\PROGRAM FILES (X86)\MICROSOFT VISUAL STUDIO 14.0\VC\INCLUDE\XLOCINFO
C:\PROGRAM FILES (X86)\MICROSOFT VISUAL STUDIO 14.0\VC\INCLUDE\XLOCINFO.H
C:\PROGRAM FILES (X86)\WINDOWS KITS\10\INCLUDE\10.0.10150.0\UCRT\CTYPE.H
C:\PROGRAM FILES (X86)\WINDOWS KITS\10\INCLUDE\10.0.10150.0\UCRT\LOCALE.H
C:\PROGRAM FILES (X86)\MICROSOFT VISUAL STUDIO 14.0\VC\INCLUDE\XFACET
C:\PROGRAM FILES (X86)\MICROSOFT VISUAL STUDIO 14.0\VC\INCLUDE\SYSTEM_ERROR
C:\PROGRAM FILES (X86)\MICROSOFT VISUAL STUDIO 14.0\VC\INCLUDE\CERRNO
C:\PROGRAM FILES (X86)\WINDOWS KITS\10\INCLUDE\10.0.10150.0\UCRT\SHARE.H
^E:\LIBRARIES\BULLET3-MASTER\BULLET3-MASTER\SRC\BULLET3COLLISION\NARROWPHASECOLLISION\B3CPUNARROWPHASE.CPP
E:\LIBRARIES\BULLET3-MASTER\BULLET3-MASTER\SRC\BULLET3COLLISION\NARROWPHASECOLLISION\B3CPUNARROWPHASE.H
E:\LIBRARIES\BULLET3-MASTER\BULLET3-MASTER\SRC\BULLET3COLLISION\NARROWPHASECOLLISION\SHARED\B3COLLIDABLE.H
E:\LIBRARIES\BULLET3-MASTER\BULLET3-MASTER\SRC\BULLET3COMMON\SHARED\B3FLOAT4.H
E:\LIBRARIES\BULLET3-MASTER\BULLET3-MASTER\SRC\BULLET3COMMON\SHARED\B3PLATFORMDEFINITIONS.H
E:\LIBRARIES\BULLET3-MASTER\BULLET3-MASTER\SRC\BULLET3COMMON\B3VECTOR3.H
E:\LIBRARIES\BULLET3-MASTER\BULLET3-MASTER\SRC\BULLET3COMMON\B3SCALAR.H
C:\PROGRAM FILES (X86)\WINDOWS KITS\10\INCLUDE\10.0.10150.0\UCRT\MATH.H
C:\PROGRAM FILES (X86)\WINDOWS KITS\10\INCLUDE\10.0.10150.0\UCRT\CORECRT.H
C:\PROGRAM FILES (X86)\MICROSOFT VISUAL STUDIO 14.0\VC\INCLUDE\VCRUNTIME.H
C:\PROGRAM FILES (X86)\MICROSOFT VISUAL STUDIO 14.0\VC\INCLUDE\SAL.H
C:\PROGRAM FILES (X86)\MICROSOFT VISUAL STUDIO 14.0\VC\INCLUDE\CONCURRENCYSAL.H
C:\PROGRAM FILES (X86)\MICROSOFT VISUAL STUDIO 14.0\VC\INCLUDE\VADEFS.H
C:\PROGRAM FILES (X86)\WINDOWS KITS\10\INCLUDE\10.0.10150.0\UCRT\STDLIB.H
C:\PROGRAM FILES (X86)\WINDOWS KITS\10\INCLUDE\10.0.10150.0\UCRT\CORECRT_MALLOC.H
C:\PROGRAM FILES (X86)\WINDOWS KITS\10\INCLUDE\10.0.10150.0\UCRT\CORECRT_SEARCH.H
C:\PROGRAM FILES (X86)\WINDOWS KITS\10\INCLUDE\10.0.10150.0\UCRT\STDDEF.H
C:\PROGRAM FILES (X86)\WINDOWS KITS\10\INCLUDE\10.0.10150.0\UCRT\CORECRT_WSTDLIB.H
C:\PROGRAM FILES (X86)\MICROSOFT VISUAL STUDIO 14.0\VC\INCLUDE\LIMITS.H
C:\PROGRAM FILES (X86)\WINDOWS KITS\10\INCLUDE\10.0.10150.0\UCRT\FLOAT.H
E:\LIBRARIES\BULLET3-MASTER\BULLET3-MASTER\SRC\BULLET3COMMON\B3LOGGING.H
C:\PROGRAM FILES (X86)\MICROSOFT VISUAL STUDIO 14.0\VC\INCLUDE\EMMINTRIN.H
C:\PROGRAM FILES (X86)\MICROSOFT VISUAL STUDIO 14.0\VC\INCLUDE\XMMINTRIN.H
C:\PROGRAM FILES (X86)\MICROSOFT VISUAL STUDIO 14.0\VC\INCLUDE\MMINTRIN.H
C:\PROGRAM FILES (X86)\WINDOWS KITS\10\INCLUDE\10.0.10150.0\UCRT\MALLOC.H
C:\PROGRAM FILES (X86)\WINDOWS KITS\10\INCLUDE\10.0.10150.0\UCRT\STDIO.H
C:\PROGRAM FILES (X86)\WINDOWS KITS\10\INCLUDE\10.0.10150.0\UCRT\CORECRT_WSTDIO.H
C:\PROGRAM FILES (X86)\WINDOWS KITS\10\INCLUDE\10.0.10150.0\UCRT\CORECRT_STDIO_CONFIG.H
E:\LIBRARIES\BULLET3-MASTER\BULLET3-MASTER\SRC\BULLET3COMMON\B3MINMAX.H
E:\LIBRARIES\BULLET3-MASTER\BULLET3-MASTER\SRC\BULLET3COMMON\B3ALIGNEDALLOCATOR.H
E:\LIBRARIES\BULLET3-MASTER\BULLET3-MASTER\SRC\BULLET3COMMON\SHARED\B3QUAT.H
E:\LIBRARIES\BULLET3-MASTER\BULLET3-MASTER\SRC\BULLET3COMMON\B3QUATERNION.H
E:\LIBRARIES\BULLET3-MASTER\BULLET3-MASTER\SRC\BULLET3COMMON\B3QUADWORD.H
E:\LIBRARIES\BULLET3-MASTER\BULLET3-MASTER\SRC\BULLET3COMMON\B3TRANSFORM.H
E:\LIBRARIES\BULLET3-MASTER\BULLET3-MASTER\SRC\BULLET3COMMON\B3MATRIX3X3.H
E:\LIBRARIES\BULLET3-MASTER\BULLET3-MASTER\SRC\BULLET3COMMON\B3ALIGNEDOBJECTARRAY.H
C:\PROGRAM FILES (X86)\MICROSOFT VISUAL STUDIO 14.0\VC\INCLUDE\NEW
C:\PROGRAM FILES (X86)\MICROSOFT VISUAL STUDIO 14.0\VC\INCLUDE\EXCEPTION
C:\PROGRAM FILES (X86)\MICROSOFT VISUAL STUDIO 14.0\VC\INCLUDE\TYPE_TRAITS
C:\PROGRAM FILES (X86)\MICROSOFT VISUAL STUDIO 14.0\VC\INCLUDE\XSTDDEF
C:\PROGRAM FILES (X86)\MICROSOFT VISUAL STUDIO 14.0\VC\INCLUDE\CSTDDEF
C:\PROGRAM FILES (X86)\MICROSOFT VISUAL STUDIO 14.0\VC\INCLUDE\YVALS.H
C:\PROGRAM FILES (X86)\MICROSOFT VISUAL STUDIO 14.0\VC\INCLUDE\XKEYCHECK.H
C:\PROGRAM FILES (X86)\MICROSOFT VISUAL STUDIO 14.0\VC\INCLUDE\CRTDEFS.H
C:\PROGRAM FILES (X86)\MICROSOFT VISUAL STUDIO 14.0\VC\INCLUDE\USE_ANSI.H
C:\PROGRAM FILES (X86)\MICROSOFT VISUAL STUDIO 14.0\VC\INCLUDE\CSTDLIB
C:\PROGRAM FILES (X86)\MICROSOFT VISUAL STUDIO 14.0\VC\INCLUDE\INITIALIZER_LIST
C:\PROGRAM FILES (X86)\MICROSOFT VISUAL STUDIO 14.0\VC\INCLUDE\XTR1COMMON
C:\PROGRAM FILES (X86)\MICROSOFT VISUAL STUDIO 14.0\VC\INCLUDE\VCRUNTIME_EXCEPTION.H
C:\PROGRAM FILES (X86)\MICROSOFT VISUAL STUDIO 14.0\VC\INCLUDE\EH.H
C:\PROGRAM FILES (X86)\WINDOWS KITS\10\INCLUDE\10.0.10150.0\UCRT\CORECRT_TERMINATE.H
C:\PROGRAM FILES (X86)\MICROSOFT VISUAL STUDIO 14.0\VC\INCLUDE\VCRUNTIME_NEW.H
E:\LIBRARIES\BULLET3-MASTER\BULLET3-MASTER\SRC\BULLET3COLLISION\BROADPHASECOLLISION\SHARED\B3AABB.H
E:\LIBRARIES\BULLET3-MASTER\BULLET3-MASTER\SRC\BULLET3COMMON\SHARED\B3MAT3X3.H
E:\LIBRARIES\BULLET3-MASTER\BULLET3-MASTER\SRC\BULLET3COMMON\SHARED\B3INT4.H
E:\LIBRARIES\BULLET3-MASTER\BULLET3-MASTER\SRC\BULLET3COLLISION\NARROWPHASECOLLISION\SHARED\B3RIGIDBODYDATA.H
E:\LIBRARIES\BULLET3-MASTER\BULLET3-MASTER\SRC\BULLET3COLLISION\NARROWPHASECOLLISION\SHARED\B3CONTACT4DATA.H
E:\LIBRARIES\BULLET3-MASTER\BULLET3-MASTER\SRC\BULLET3COLLISION\NARROWPHASECOLLISION\B3CONVEXUTILITY.H
E:\LIBRARIES\BULLET3-MASTER\BULLET3-MASTER\SRC\BULLET3COLLISION\NARROWPHASECOLLISION\B3CONFIG.H
E:\LIBRARIES\BULLET3-MASTER\BULLET3-MASTER\SRC\BULLET3COLLISION\NARROWPHASECOLLISION\SHARED\B3CONVEXPOLYHEDRONDATA.H
E:\LIBRARIES\BULLET3-MASTER\BULLET3-MASTER\SRC\BULLET3COLLISION\NARROWPHASECOLLISION\SHARED\B3CONTACTCONVEXCONVEXSAT.H
E:\LIBRARIES\BULLET3-MASTER\BULLET3-MASTER\SRC\BULLET3COLLISION\NARROWPHASECOLLISION\SHARED\B3FINDSEPARATINGAXIS.H
E:\LIBRARIES\BULLET3-MASTER\BULLET3-MASTER\SRC\BULLET3COLLISION\NARROWPHASECOLLISION\SHARED\B3REDUCECONTACTS.H
